<svg viewBox="0 0 659 107" fill="none" xmlns="http://www.w3.org/2000/svg">
<path d="M106.914 54.7214C106.914 83.5943 83.5093 107 54.6366 107C25.7644 107 2.35861 83.5943 2.35861 54.7214C2.35861 25.8494 25.7644 2.44385 54.6366 2.44385C83.5093 2.44385 106.914 25.8494 106.914 54.7214Z" fill="#100F0D"/>
<path d="M23.8472 53.1178C24.6763 53.1178 25.2338 53.6754 25.2338 54.5044L25.2193 58.3411H29.138C29.9479 58.3411 30.6046 58.9977 30.6046 59.8077V64.2103H34.9978C35.8761 64.2103 36.466 64.7677 36.466 65.5966V70.1099H40.5427V33.0979H72.3252V20.5463H62.1362C61.3077 20.5463 60.7498 19.9585 60.7498 19.0854V11.8381L86.0533 11.8207C76.9693 4.43665 65.3979 0 52.8056 0C23.6884 0 0 23.6881 0 52.8051C0 67.9171 6.39022 81.5556 16.5984 91.1901V53.1178H23.8472Z" fill="#BE34A1"/>
<path d="M94.5565 20.532L81.0334 20.5462V56.6636C81.0334 57.6936 80.198 58.529 79.168 58.529H72.3252V41.8064H49.2515V51.8602H61.65V59.108C61.65 59.9371 61.0624 60.494 60.1891 60.494H49.2515V77.2597C49.2515 77.2887 49.2456 77.3158 49.2443 77.3435V83.1447C49.2443 84.0181 48.6867 84.6047 47.8577 84.6047H40.6089V77.99H35.1246L35.1254 72.2024H29.3376V66.2291H25.2191V97.8107C33.2532 102.753 42.7008 105.611 52.8054 105.611C81.9222 105.611 105.61 81.9226 105.61 52.8055C105.61 40.6577 101.477 29.464 94.5565 20.532Z" fill="#00ABC7"/>
<path d="M29.3379 66.2285V72.2018H35.1256L35.1249 77.9894H40.6093V84.6041H47.8581C48.6871 84.6041 49.2447 84.0175 49.2447 83.1441V77.3429C49.246 77.3146 49.252 77.2882 49.252 77.2591V60.4929H60.1896C61.0629 60.4929 61.6505 59.9363 61.6505 59.1079V51.8592H49.252V41.8051H72.3258V58.5285H79.1686C80.1986 58.5285 81.034 57.6933 81.034 56.6629V20.545L94.5572 20.5306C92.0646 17.3121 89.2123 14.3858 86.0539 11.8193L60.7502 11.8371V19.0848C60.7502 19.9581 61.3081 20.545 62.1365 20.545H72.3258V33.0972H40.5429V70.1089H36.4663V65.5962C36.4663 64.7673 35.8764 64.2097 34.9981 64.2097H30.6048V59.8071C30.6048 58.9972 29.9481 58.3402 29.1382 58.3402H25.2194L25.2339 54.5035C25.2339 53.6742 24.6765 53.1167 23.8474 53.1167H16.5985V91.189C19.2339 93.6765 22.1177 95.9022 25.2194 97.8101V66.2285H29.3379Z" fill="white"/>
<path d="M47.0941 4.50879C25.9857 7.26231 9.06171 23.3272 5.0209 44.0028C10.9971 24.4399 27.0297 9.267 47.0941 4.50879Z" fill="#100F0D"/>
<path d="M188.241 23.8492V87.0175H173.532L145.648 53.3578V87.0175H128.141V23.8492H142.85L170.735 57.5089V23.8492H188.241ZM220.517 37.656V51.553H248.401V65.3598H220.517V87.0175H202.649V23.8492H252.191V37.656H220.517ZM276.239 38.0169H256.838V23.8492H313.418V38.0169H294.107V87.0175H276.239V38.0169ZM353.283 87.9199C346.907 87.9199 341.131 86.536 335.957 83.7689C330.844 80.9411 326.813 77.0608 323.865 72.1278C320.977 67.1949 319.533 61.6298 319.533 55.4333C319.533 49.2369 321.008 43.672 323.955 38.7389C326.903 33.8057 330.934 29.9554 336.047 27.1881C341.221 24.3605 346.997 22.9468 353.374 22.9468C358.548 22.9468 363.27 23.8492 367.541 25.654C371.813 27.4588 375.423 30.0758 378.37 33.5049L370.79 40.6339C366.218 35.7008 360.593 33.2342 353.915 33.2342C349.584 33.2342 345.703 34.1967 342.274 36.1219C338.845 37.9868 336.168 40.6038 334.243 43.9728C332.317 47.3418 331.355 51.1619 331.355 55.4333C331.355 59.7048 332.317 63.5249 334.243 66.8939C336.168 70.2631 338.845 72.9097 342.274 74.835C345.703 76.6998 349.584 77.6325 353.915 77.6325C360.593 77.6325 366.218 75.1361 370.79 70.1425L378.37 77.3618C375.423 80.7909 371.783 83.4079 367.451 85.2127C363.18 87.0175 358.457 87.9199 353.283 87.9199ZM419.602 87.9199C413.165 87.9199 407.36 86.536 402.186 83.7689C397.012 80.9411 392.951 77.0608 390.004 72.1278C387.056 67.1343 385.582 61.5697 385.582 55.4333C385.582 49.297 387.056 43.7622 390.004 38.8291C392.951 33.8358 397.012 29.9554 402.186 27.1881C407.36 24.3605 413.165 22.9468 419.602 22.9468C426.04 22.9468 431.845 24.3605 437.019 27.1881C442.193 29.9554 446.254 33.8057 449.201 38.7389C452.149 43.672 453.623 49.2369 453.623 55.4333C453.623 61.6298 452.149 67.1949 449.201 72.1278C446.254 77.0608 442.193 80.9411 437.019 83.7689C431.845 86.536 426.04 87.9199 419.602 87.9199ZM419.602 77.6325C423.813 77.6325 427.604 76.6998 430.973 74.835C434.342 72.9097 436.988 70.2631 438.914 66.8939C440.839 63.4648 441.802 59.6446 441.802 55.4333C441.802 51.2221 440.839 47.432 438.914 44.063C436.988 40.6339 434.342 37.9868 430.973 36.1219C427.604 34.1967 423.813 33.2342 419.602 33.2342C415.391 33.2342 411.601 34.1967 408.232 36.1219C404.863 37.9868 402.216 40.6339 400.291 44.063C398.366 47.432 397.403 51.2221 397.403 55.4333C397.403 59.6446 398.366 63.4648 400.291 66.8939C402.216 70.2631 404.863 72.9097 408.232 74.835C411.601 76.6998 415.391 77.6325 419.602 77.6325ZM507.95 72.3986H476.366L470.14 87.0175H458.047L486.473 23.8492H498.024L526.54 87.0175H514.267L507.95 72.3986ZM504.07 63.194L492.158 35.5804L480.337 63.194H504.07ZM564.735 87.9199C558.358 87.9199 552.583 86.536 547.409 83.7689C542.295 80.9411 538.265 77.0608 535.316 72.1278C532.429 67.1949 530.985 61.6298 530.985 55.4333C530.985 49.2369 532.459 43.672 535.407 38.7389C538.355 33.8057 542.385 29.9554 547.499 27.1881C552.673 24.3605 558.448 22.9468 564.825 22.9468C569.999 22.9468 574.722 23.8492 578.993 25.654C583.264 27.4588 586.874 30.0758 589.822 33.5049L582.241 40.6339C577.67 35.7008 572.044 33.2342 565.367 33.2342C561.035 33.2342 557.155 34.1967 553.726 36.1219C550.296 37.9868 547.619 40.6038 545.694 43.9728C543.769 47.3418 542.806 51.1619 542.806 55.4333C542.806 59.7048 543.769 63.5249 545.694 66.8939C547.619 70.2631 550.296 72.9097 553.726 74.835C557.155 76.6998 561.035 77.6325 565.367 77.6325C572.044 77.6325 577.67 75.1361 582.241 70.1425L589.822 77.3618C586.874 80.7909 583.234 83.4079 578.903 85.2127C574.632 87.0175 569.909 87.9199 564.735 87.9199ZM659 23.8492V87.0175H647.269V59.9454H614.598V87.0175H602.867V23.8492H614.598V49.9287H647.269V23.8492H659Z" fill="#464B4E"/>
</svg>
